  0
SECTION
  2
HEADER
  9
$ACADVER
  1
AC1009
  9
$DWGCODEPAGE
  3
ansi_1252
  9
$INSBASE
  10
0.0
  20
0.0
  30
0.0
  9
$EXTMIN
  10
2.15278
  20
740.359
  30
0.0
  9
$EXTMAX
  10
331.916
  20
898.222
  30
0.0
  0
ENDSEC
  0
SECTION
  2
ENTITIES
  0
POLYLINE
  62
0
  0
VERTEX
  10
250.57388
  20
850.10559
  0
VERTEX
  10
250.8255
  20
849.79193
  0
VERTEX
  10
251.12515
  20
849.54175
  0
VERTEX
  10
251.46194
  20
849.35742
  0
VERTEX
  10
251.825
  20
849.24133
  0
VERTEX
  10
252.20343
  20
849.19586
  0
VERTEX
  10
252.5864
  20
849.22333
  0
VERTEX
  10
252.96298
  20
849.32611
  0
VERTEX
  10
253.32228
  20
849.50665
  0
VERTEX
  10
253.57622
  20
849.66779
  0
VERTEX
  10
253.92821
  20
849.84509
  0
VERTEX
  10
254.30447
  20
849.94934
  0
VERTEX
  10
254.69382
  20
849.97845
  0
VERTEX
  10
255.08502
  20
849.93054
  0
VERTEX
  10
255.45926
  20
849.80695
  0
VERTEX
  10
255.79892
  20
849.61438
  0
VERTEX
  10
256.09473
  20
849.35956
  0
VERTEX
  10
256.33734
  20
849.04901
  0
VERTEX
  10
258.74396
  20
845.2486
  0
VERTEX
  10
258.82553
  20
845.08557
  0
VERTEX
  10
258.87161
  20
844.91479
  0
VERTEX
  10
258.8833
  20
844.74121
  0
VERTEX
  10
258.86176
  20
844.56989
  0
VERTEX
  10
258.80798
  20
844.40582
  0
VERTEX
  10
258.72327
  20
844.25391
  0
VERTEX
  10
258.60858
  20
844.1192
  0
VERTEX
  10
258.46512
  20
844.00671
  0
VERTEX
  10
258.30206
  20
843.92511
  0
VERTEX
  10
258.13129
  20
843.87903
  0
VERTEX
  10
257.9577
  20
843.86737
  0
VERTEX
  10
257.78641
  20
843.88898
  0
VERTEX
  10
257.62228
  20
843.94269
  0
VERTEX
  10
257.4704
  20
844.02747
  0
VERTEX
  10
257.33572
  20
844.14215
  0
VERTEX
  10
257.22327
  20
844.28558
  0
SEQEND
  0
POLYLINE
  62
0
  0
VERTEX
  10
250.56206
  20
850.12402
  0
VERTEX
  10
250.56795
  20
850.11481
  0
VERTEX
  10
250.57388
  20
850.10559
  0
SEQEND
  0
POLYLINE
  62
0
  0
VERTEX
  10
257.22324
  20
844.28558
  0
VERTEX
  10
256.41922
  20
845.55292
  0
VERTEX
  10
256.26285
  20
845.75201
  0
VERTEX
  10
256.07562
  20
845.91113
  0
VERTEX
  10
255.86456
  20
846.02869
  0
VERTEX
  10
255.63657
  20
846.10315
  0
VERTEX
  10
255.39859
  20
846.13293
  0
VERTEX
  10
255.15755
  20
846.11646
  0
VERTEX
  10
254.92038
  20
846.05225
  0
VERTEX
  10
254.69406
  20
845.93878
  0
VERTEX
  10
254.49496
  20
845.78235
  0
VERTEX
  10
254.33585
  20
845.59515
  0
VERTEX
  10
254.21829
  20
845.38409
  0
VERTEX
  10
254.14386
  20
845.15613
  0
VERTEX
  10
254.11407
  20
844.91815
  0
VERTEX
  10
254.13051
  20
844.67712
  0
VERTEX
  10
254.1947
  20
844.43994
  0
VERTEX
  10
254.30821
  20
844.21362
  0
VERTEX
  10
254.93414
  20
843.22699
  0
VERTEX
  10
309.93573
  20
756.53308
  0
VERTEX
  10
310.68396
  20
755.39136
  0
VERTEX
  10
311.46518
  20
754.27301
  0
VERTEX
  10
312.27887
  20
753.17883
  0
VERTEX
  10
313.12445
  20
752.1095
  0
VERTEX
  10
314.00134
  20
751.06567
  0
VERTEX
  10
314.909
  20
750.0481
  0
VERTEX
  10
315.84686
  20
749.05743
  0
VERTEX
  10
316.81436
  20
748.09436
  0
VERTEX
  10
319.43008
  20
745.77423
  0
VERTEX
  10
319.77341
  20
745.47131
  0
VERTEX
  10
320.13718
  20
745.20483
  0
VERTEX
  10
320.5188
  20
744.97491
  0
VERTEX
  10
320.91571
  20
744.78162
  0
VERTEX
  10
321.32526
  20
744.62524
  0
VERTEX
  10
321.74484
  20
744.50592
  0
VERTEX
  10
322.17188
  20
744.42371
  0
VERTEX
  10
322.60376
  20
744.37891
  0
VERTEX
  10
323.0379
  20
744.37158
  0
VERTEX
  10
323.47174
  20
744.40186
  0
VERTEX
  10
323.90262
  20
744.46997
  0
VERTEX
  10
324.32794
  20
744.57605
  0
VERTEX
  10
324.74515
  20
744.72021
  0
VERTEX
  10
325.15161
  20
744.90271
  0
VERTEX
  10
325.54477
  20
745.1236
  0
VERTEX
  10
325.922
  20
745.38306
  0
VERTEX
  10
326.27417
  20
745.6756
  0
VERTEX
  10
326.59354
  20
745.99402
  0
VERTEX
  10
326.87952
  20
746.33563
  0
VERTEX
  10
327.13159
  20
746.698
  0
VERTEX
  10
327.34918
  20
747.07855
  0
VERTEX
  10
327.53171
  20
747.47473
  0
VERTEX
  10
327.67868
  20
747.88403
  0
VERTEX
  10
327.78952
  20
748.30389
  0
VERTEX
  10
327.86365
  20
748.73175
  0
VERTEX
  10
327.90054
  20
749.16504
  0
VERTEX
  10
327.8996
  20
749.60126
  0
VERTEX
  10
327.86035
  20
750.03784
  0
VERTEX
  10
327.78217
  20
750.47229
  0
VERTEX
  10
327.66449
  20
750.90204
  0
VERTEX
  10
327.50681
  20
751.32446
  0
VERTEX
  10
327.30853
  20
751.73718
  0
VERTEX
  10
327.07373
  20
752.13025
  0
VERTEX
  10
326.80835
  20
752.49481
  0
VERTEX
  10
326.51483
  20
752.83002
  0
VERTEX
  10
326.19559
  20
753.13489
  0
VERTEX
  10
325.85309
  20
753.40851
  0
VERTEX
  10
325.48978
  20
753.6499
  0
VERTEX
  10
325.10803
  20
753.85822
  0
VERTEX
  10
324.71027
  20
754.03235
  0
VERTEX
  10
324.29895
  20
754.17151
  0
VERTEX
  10
323.87653
  20
754.27478
  0
VERTEX
  10
323.44537
  20
754.34106
  0
VERTEX
  10
323.0079
  20
754.36951
  0
VERTEX
  10
322.56659
  20
754.35913
  0
VERTEX
  10
322.1239
  20
754.30908
  0
VERTEX
  10
321.68216
  20
754.21838
  0
VERTEX
  10
321.24384
  20
754.08606
  0
VERTEX
  10
320.849
  20
753.99023
  0
VERTEX
  10
320.45502
  20
753.9754
  0
VERTEX
  10
320.0722
  20
754.03668
  0
VERTEX
  10
319.71085
  20
754.16907
  0
VERTEX
  10
319.38123
  20
754.3678
  0
VERTEX
  10
319.0936
  20
754.62775
  0
VERTEX
  10
318.85831
  20
754.94409
  0
VERTEX
  10
318.68561
  20
755.31183
  0
VERTEX
  10
318.58978
  20
755.70667
  0
VERTEX
  10
318.57498
  20
756.10065
  0
VERTEX
  10
318.63626
  20
756.48346
  0
VERTEX
  10
318.76868
  20
756.84485
  0
VERTEX
  10
318.96735
  20
757.17444
  0
VERTEX
  10
319.22729
  20
757.46204
  0
VERTEX
  10
319.54361
  20
757.69739
  0
VERTEX
  10
319.91141
  20
757.87006
  0
VERTEX
  10
320.61639
  20
758.08655
  0
VERTEX
  10
321.32794
  20
758.24316
  0
VERTEX
  10
322.04282
  20
758.341
  0
VERTEX
  10
322.75784
  20
758.3811
  0
VERTEX
  10
323.46967
  20
758.36438
  0
VERTEX
  10
324.17505
  20
758.29187
  0
VERTEX
  10
324.87073
  20
758.16455
  0
VERTEX
  10
325.55341
  20
757.98352
  0
VERTEX
  10
326.21988
  20
757.74969
  0
VERTEX
  10
326.86685
  20
757.46411
  0
VERTEX
  10
327.49109
  20
757.12769
  0
VERTEX
  10
328.08929
  20
756.74158
  0
VERTEX
  10
328.6582
  20
756.30664
  0
VERTEX
  10
329.19458
  20
755.82397
  0
VERTEX
  10
329.69513
  20
755.29456
  0
VERTEX
  10
330.15668
  20
754.71936
  0
VERTEX
  10
330.56995
  20
754.10864
  0
VERTEX
  10
330.92798
  20
753.474
  0
VERTEX
  10
331.23071
  20
752.81909
  0
VERTEX
  10
331.4783
  20
752.14709
  0
VERTEX
  10
331.67062
  20
751.46155
  0
VERTEX
  10
331.80774
  20
750.76587
  0
VERTEX
  10
331.88959
  20
750.06335
  0
VERTEX
  10
331.91623
  20
749.35754
  0
VERTEX
  10
331.88763
  20
748.65186
  0
VERTEX
  10
331.80389
  20
747.94958
  0
VERTEX
  10
331.66486
  20
747.25427
  0
VERTEX
  10
331.4707
  20
746.56927
  0
VERTEX
  10
331.22131
  20
745.89795
  0
VERTEX
  10
330.91675
  20
745.24377
  0
VERTEX
  10
330.55701
  20
744.61023
  0
VERTEX
  10
330.14209
  20
744.00061
  0
VERTEX
  10
329.67902
  20
743.42664
  0
VERTEX
  10
329.17697
  20
742.89862
  0
VERTEX
  10
328.63925
  20
742.41742
  0
VERTEX
  10
328.06915
  20
741.98407
  0
VERTEX
  10
327.46988
  20
741.59955
  0
VERTEX
  10
326.84473
  20
741.26489
  0
VERTEX
  10
326.19696
  20
740.98102
  0
VERTEX
  10
325.52991
  20
740.74902
  0
VERTEX
  10
324.84668
  20
740.56982
  0
VERTEX
  10
324.1507
  20
740.44446
  0
VERTEX
  10
323.44513
  20
740.37384
  0
VERTEX
  10
322.73328
  20
740.35907
  0
VERTEX
  10
322.0184
  20
740.40112
  0
VERTEX
  10
321.30374
  20
740.50085
  0
VERTEX
  10
320.59259
  20
740.65948
  0
VERTEX
  10
319.88824
  20
740.87787
  0
VERTEX
  10
318.73624
  20
741.36078
  0
VERTEX
  10
317.6073
  20
741.88733
  0
VERTEX
  10
316.50256
  20
742.45667
  0
VERTEX
  10
315.42316
  20
743.06787
  0
VERTEX
  10
314.37015
  20
743.71997
  0
VERTEX
  10
313.3447
  20
744.41205
  0
VERTEX
  10
312.34784
  20
745.14325
  0
VERTEX
  10
311.38074
  20
745.9126
  0
VERTEX
  10
310.44446
  20
746.71924
  0
VERTEX
  10
309.54016
  20
747.56213
  0
VERTEX
  10
308.66888
  20
748.44055
  0
VERTEX
  10
307.83185
  20
749.35339
  0
VERTEX
  10
307.03003
  20
750.2998
  0
VERTEX
  10
306.26459
  20
751.27893
  0
VERTEX
  10
305.53662
  20
752.28986
  0
VERTEX
  10
304.84729
  20
753.33154
  0
VERTEX
  10
241.79114
  20
852.84082
  0
VERTEX
  10
240.88165
  20
854.21698
  0
VERTEX
  10
239.92256
  20
855.55371
  0
VERTEX
  10
238.91525
  20
856.84998
  0
VERTEX
  10
237.86105
  20
858.10455
  0
VERTEX
  10
236.76138
  20
859.31635
  0
VERTEX
  10
235.61758
  20
860.48413
  0
VERTEX
  10
234.43103
  20
861.60681
  0
VERTEX
  10
233.20311
  20
862.68317
  0
VERTEX
  10
231.93515
  20
863.7121
  0
VERTEX
  10
230.62857
  20
864.69238
  0
VERTEX
  10
229.2847
  20
865.62299
  0
VERTEX
  10
227.90491
  20
866.50269
  0
VERTEX
  10
226.49057
  20
867.33032
  0
VERTEX
  10
225.04308
  20
868.10474
  0
VERTEX
  10
223.56378
  20
868.82477
  0
VERTEX
  10
222.05402
  20
869.48926
  0
VERTEX
  10
220.74103
  20
870.08307
  0
VERTEX
  10
219.45198
  20
870.72601
  0
VERTEX
  10
218.18822
  20
871.41736
  0
VERTEX
  10
216.95111
  20
872.15637
  0
VERTEX
  10
214.64008
  20
873.59705
  0
VERTEX
  10
213.29465
  20
874.41949
  0
VERTEX
  10
211.93661
  20
875.21735
  0
VERTEX
  10
210.56631
  20
875.99048
  0
VERTEX
  10
209.1841
  20
876.73883
  0
VERTEX
  10
207.7903
  20
877.46228
  0
VERTEX
  10
206.38525
  20
878.16071
  0
VERTEX
  10
204.96933
  20
878.83405
  0
VERTEX
  10
203.54285
  20
879.48218
  0
VERTEX
  10
202.10614
  20
880.10498
  0
VERTEX
  10
200.65958
  20
880.70239
  0
VERTEX
  10
199.20352
  20
881.27435
  0
VERTEX
  10
197.73825
  20
881.82068
  0
VERTEX
  10
196.26416
  20
882.34137
  0
VERTEX
  10
194.78156
  20
882.83624
  0
VERTEX
  10
193.2908
  20
883.30518
  0
VERTEX
  10
191.79225
  20
883.74823
  0
VERTEX
  10
190.28622
  20
884.1651
  0
VERTEX
  10
188.7731
  20
884.55585
  0
VERTEX
  10
187.25317
  20
884.92029
  0
VERTEX
  10
185.72684
  20
885.25842
  0
VERTEX
  10
184.1944
  20
885.57001
  0
VERTEX
  10
182.6562
  20
885.85504
  0
VERTEX
  10
181.11259
  20
886.1134
  0
VERTEX
  10
179.56393
  20
886.34497
  0
VERTEX
  10
178.01054
  20
886.54968
  0
VERTEX
  10
176.45279
  20
886.72748
  0
VERTEX
  10
174.89099
  20
886.87817
  0
VERTEX
  10
173.32549
  20
887.00171
  0
VERTEX
  10
171.75665
  20
887.09796
  0
VERTEX
  10
170.18481
  20
887.16687
  0
VERTEX
  10
168.61029
  20
887.20831
  0
VERTEX
  10
167.03346
  20
887.22223
  0
VERTEX
  10
165.45663
  20
887.20831
  0
VERTEX
  10
163.88211
  20
887.16687
  0
VERTEX
  10
162.31026
  20
887.09796
  0
VERTEX
  10
160.74142
  20
887.00171
  0
VERTEX
  10
159.1759
  20
886.87817
  0
VERTEX
  10
157.61411
  20
886.72748
  0
VERTEX
  10
156.05635
  20
886.54968
  0
VERTEX
  10
154.50296
  20
886.34497
  0
VERTEX
  10
152.95428
  20
886.1134
  0
VERTEX
  10
151.41068
  20
885.85504
  0
VERTEX
  10
149.87248
  20
885.57001
  0
VERTEX
  10
148.34004
  20
885.25836
  0
VERTEX
  10
146.81369
  20
884.92029
  0
VERTEX
  10
145.29376
  20
884.55585
  0
VERTEX
  10
143.78064
  20
884.1651
  0
VERTEX
  10
142.27463
  20
883.74817
  0
VERTEX
  10
140.77609
  20
883.30518
  0
VERTEX
  10
139.28534
  20
882.83618
  0
VERTEX
  10
137.80275
  20
882.34131
  0
VERTEX
  10
136.32866
  20
881.82068
  0
VERTEX
  10
134.8634
  20
881.27429
  0
VERTEX
  10
133.40732
  20
880.70239
  0
VERTEX
  10
131.96078
  20
880.10492
  0
VERTEX
  10
130.52408
  20
879.48212
  0
VERTEX
  10
129.0976
  20
878.83398
  0
VERTEX
  10
127.68166
  20
878.16064
  0
VERTEX
  10
126.27663
  20
877.46222
  0
VERTEX
  10
124.88283
  20
876.73883
  0
VERTEX
  10
123.5006
  20
875.99048
  0
VERTEX
  10
122.13031
  20
875.21735
  0
VERTEX
  10
120.77228
  20
874.41949
  0
VERTEX
  10
119.42686
  20
873.59705
  0
VERTEX
  10
117.11585
  20
872.15637
  0
VERTEX
  10
115.87876
  20
871.41736
  0
VERTEX
  10
114.615
  20
870.72601
  0
VERTEX
  10
113.32594
  20
870.08307
  0
VERTEX
  10
112.01295
  20
869.48926
  0
VERTEX
  10
111.1971
  20
869.13873
  0
VERTEX
  10
109.75221
  20
868.46796
  0
VERTEX
  10
108.33659
  20
867.74585
  0
VERTEX
  10
106.95146
  20
866.97351
  0
VERTEX
  10
105.59805
  20
866.15198
  0
VERTEX
  10
104.27756
  20
865.28235
  0
VERTEX
  10
102.99124
  20
864.3656
  0
VERTEX
  10
101.7403
  20
863.40283
  0
VERTEX
  10
100.52596
  20
862.39514
  0
VERTEX
  10
99.349442
  20
861.34351
  0
VERTEX
  10
98.21199
  20
860.24896
  0
VERTEX
  10
97.114807
  20
859.11267
  0
VERTEX
  10
96.05912
  20
857.93561
  0
VERTEX
  10
95.046158
  20
856.71881
  0
VERTEX
  10
94.077133
  20
855.46338
  0
VERTEX
  10
93.153282
  20
854.17035
  0
VERTEX
  10
92.275826
  20
852.84082
  0
VERTEX
  10
29.219681
  20
753.33154
  0
VERTEX
  10
28.579924
  20
752.36182
  0
VERTEX
  10
27.90658
  20
751.41858
  0
VERTEX
  10
27.200523
  20
750.50244
  0
VERTEX
  10
26.462631
  20
749.61432
  0
VERTEX
  10
25.693783
  20
748.75482
  0
VERTEX
  10
24.894852
  20
747.9248
  0
VERTEX
  10
24.066715
  20
747.125
  0
VERTEX
  10
23.210251
  20
746.35614
  0
VERTEX
  10
22.326336
  20
745.61902
  0
VERTEX
  10
21.415844
  20
744.91431
  0
VERTEX
  10
20.479654
  20
744.24292
  0
VERTEX
  10
19.518646
  20
743.60553
  0
VERTEX
  10
18.533691
  20
743.00293
  0
VERTEX
  10
17.525667
  20
742.43579
  0
VERTEX
  10
16.495453
  20
741.90491
  0
VERTEX
  10
15.443924
  20
741.41113
  0
VERTEX
  10
15.135193
  20
741.28101
  0
VERTEX
  10
14.438698
  20
740.97443
  0
VERTEX
  10
13.728195
  20
740.73035
  0
VERTEX
  10
13.00734
  20
740.5481
  0
VERTEX
  10
12.279791
  20
740.42676
  0
VERTEX
  10
11.549205
  20
740.36578
  0
VERTEX
  10
10.819241
  20
740.36426
  0
VERTEX
  10
10.093554
  20
740.42163
  0
VERTEX
  10
9.3758011
  20
740.53699
  0
VERTEX
  10
8.6696415
  20
740.70959
  0
VERTEX
  10
7.9787335
  20
740.93884
  0
VERTEX
  10
7.3067327
  20
741.22394
  0
VERTEX
  10
6.6572967
  20
741.56409
  0
VERTEX
  10
6.0340834
  20
741.95862
  0
VERTEX
  10
5.4407501
  20
742.40674
  0
VERTEX
  10
4.8809538
  20
742.90778
  0
VERTEX
  10
4.3583527
  20
743.46088
  0
VERTEX
  10
3.883913
  20
744.05585
  0
VERTEX
  10
3.4663038
  20
744.68036
  0
VERTEX
  10
3.1057453
  20
745.33063
  0
VERTEX
  10
2.8024576
  20
746.00293
  0
VERTEX
  10
2.5566607
  20
746.69366
  0
VERTEX
  10
2.3685744
  20
747.39899
  0
VERTEX
  10
2.2384188
  20
748.11523
  0
VERTEX
  10
2.1664143
  20
748.83862
  0
VERTEX
  10
2.1527803
  20
749.56543
  0
VERTEX
  10
2.1977372
  20
750.29199
  0
VERTEX
  10
2.3015051
  20
751.01453
  0
VERTEX
  10
2.4643033
  20
751.72937
  0
VERTEX
  10
2.6863525
  20
752.43274
  0
VERTEX
  10
2.9678726
  20
753.12097
  0
VERTEX
  10
3.3090835
  20
753.79022
  0
VERTEX
  10
3.7102051
  20
754.43689
  0
VERTEX
  10
4.164073
  20
755.04767
  0
VERTEX
  10
4.6610126
  20
755.61108
  0
VERTEX
  10
5.1974797
  20
756.12598
  0
VERTEX
  10
5.7699289
  20
756.59106
  0
VERTEX
  10
6.374815
  20
757.00531
  0
VERTEX
  10
7.0085936
  20
757.36749
  0
VERTEX
  10
7.6677198
  20
757.67645
  0
VERTEX
  10
8.3486481
  20
757.93103
  0
VERTEX
  10
9.0478334
  20
758.13
  0
VERTEX
  10
9.7617331
  20
758.27234
  0
VERTEX
  10
10.486799
  20
758.35681
  0
VERTEX
  10
11.219489
  20
758.3822
  0
VERTEX
  10
11.956257
  20
758.34741
  0
VERTEX
  10
12.693557
  20
758.25122
  0
VERTEX
  10
13.427846
  20
758.09247
  0
VERTEX
  10
14.155579
  20
757.87
  0
VERTEX
  10
14.523348
  20
757.69733
  0
VERTEX
  10
14.839678
  20
757.46204
  0
VERTEX
  10
15.099638
  20
757.17444
  0
VERTEX
  10
15.2983
  20
756.84479
  0
VERTEX
  10
15.430735
  20
756.4834
  0
VERTEX
  10
15.492012
  20
756.10059
  0
VERTEX
  10
15.477203
  20
755.70667
  0
VERTEX
  10
15.381378
  20
755.31177
  0
VERTEX
  10
15.208675
  20
754.94403
  0
VERTEX
  10
14.973377
  20
754.62769
  0
VERTEX
  10
14.685769
  20
754.36774
  0
VERTEX
  10
14.35614
  20
754.16907
  0
VERTEX
  10
13.994777
  20
754.03662
  0
VERTEX
  10
13.611965
  20
753.97534
  0
VERTEX
  10
13.217995
  20
753.99017
  0
VERTEX
  10
12.823151
  20
754.086
  0
VERTEX
  10
12.38485
  20
754.21832
  0
VERTEX
  10
11.943121
  20
754.30908
  0
VERTEX
  10
11.500395
  20
754.35913
  0
VERTEX
  10
11.059097
  20
754.36945
  0
VERTEX
  10
10.621655
  20
754.341
  0
VERTEX
  10
10.190495
  20
754.27472
  0
VERTEX
  10
9.7680454
  20
754.17151
  0
VERTEX
  10
9.3567333
  20
754.03235
  0
VERTEX
  10
8.9589853
  20
753.85815
  0
VERTEX
  10
8.5772305
  20
753.6499
  0
VERTEX
  10
8.2138948
  20
753.40845
  0
VERTEX
  10
7.8714046
  20
753.13489
  0
VERTEX
  10
7.5521884
  20
752.82996
  0
VERTEX
  10
7.2586727
  20
752.49475
  0
VERTEX
  10
6.9932852
  20
752.13019
  0
VERTEX
  10
6.7584534
  20
751.73718
  0
VERTEX
  10
6.5601835
  20
751.32446
  0
VERTEX
  10
6.4024935
  20
750.90198
  0
VERTEX
  10
6.2848287
  20
750.47229
  0
VERTEX
  10
6.206634
  20
750.03784
  0
VERTEX
  10
6.1673551
  20
749.6012
  0
VERTEX
  10
6.1664367
  20
749.16504
  0
VERTEX
  10
6.2033238
  20
748.73169
  0
VERTEX
  10
6.277462
  20
748.30383
  0
VERTEX
  10
6.3882957
  20
747.88403
  0
VERTEX
  10
6.5352707
  20
747.47473
  0
VERTEX
  10
6.7178316
  20
747.07855
  0
VERTEX
  10
6.9354234
  20
746.698
  0
VERTEX
  10
7.1874914
  20
746.33563
  0
VERTEX
  10
7.4734812
  20
745.99396
  0
VERTEX
  10
7.7928367
  20
745.67554
  0
VERTEX
  10
8.1450043
  20
745.383
  0
VERTEX
  10
8.5222225
  20
745.12354
  0
VERTEX
  10
8.915369
  20
744.90265
  0
VERTEX
  10
9.321847
  20
744.72021
  0
VERTEX
  10
9.7390556
  20
744.57605
  0
VERTEX
  10
10.164398
  20
744.46997
  0
VERTEX
  10
10.595276
  20
744.40186
  0
VERTEX
  10
11.029091
  20
744.37152
  0
VERTEX
  10
11.463245
  20
744.37891
  0
VERTEX
  10
11.895141
  20
744.42371
  0
VERTEX
  10
12.322178
  20
744.50586
  0
VERTEX
  10
12.74176
  20
744.62524
  0
VERTEX
  10
13.151289
  20
744.78162
  0
VERTEX
  10
13.548166
  20
744.97485
  0
VERTEX
  10
13.929792
  20
745.20483
  0
VERTEX
  10
14.29357
  20
745.47131
  0
VERTEX
  10
14.636902
  20
745.77417
  0
VERTEX
  10
17.252625
  20
748.09436
  0
VERTEX
  10
18.220098
  20
749.05737
  0
VERTEX
  10
19.157957
  20
750.04803
  0
VERTEX
  10
20.065628
  20
751.06561
  0
VERTEX
  10
20.942547
  20
752.10944
  0
VERTEX
  10
21.788141
  20
753.17883
  0
VERTEX
  10
22.601843
  20
754.27295
  0
VERTEX
  10
23.383081
  20
755.3913
  0
VERTEX
  10
24.131287
  20
756.53308
  0
VERTEX
  10
79.13282
  20
843.22699
  0
VERTEX
  10
79.758751
  20
844.21362
  0
VERTEX
  10
79.872261
  20
844.43994
  0
VERTEX
  10
79.936462
  20
844.67706
  0
VERTEX
  10
79.952888
  20
844.91809
  0
VERTEX
  10
79.923111
  20
845.15607
  0
VERTEX
  10
79.848671
  20
845.38409
  0
VERTEX
  10
79.731125
  20
845.59515
  0
VERTEX
  10
79.572014
  20
845.78235
  0
VERTEX
  10
79.372902
  20
845.93872
  0
VERTEX
  10
79.146584
  20
846.05225
  0
VERTEX
  10
78.909431
  20
846.11646
  0
VERTEX
  10
78.668396
  20
846.13287
  0
VERTEX
  10
78.43042
  20
846.10309
  0
VERTEX
  10
78.202423
  20
846.02869
  0
VERTEX
  10
77.991364
  20
845.91113
  0
VERTEX
  10
77.804161
  20
845.75201
  0
VERTEX
  10
77.647758
  20
845.55292
  0
VERTEX
  10
76.843719
  20
844.28558
  0
VERTEX
  10
76.731232
  20
844.14209
  0
VERTEX
  10
76.596542
  20
844.02747
  0
VERTEX
  10
76.444641
  20
843.94269
  0
VERTEX
  10
76.280533
  20
843.88892
  0
VERTEX
  10
76.109207
  20
843.86737
  0
VERTEX
  10
75.935654
  20
843.87903
  0
VERTEX
  10
75.764877
  20
843.92511
  0
VERTEX
  10
75.601852
  20
844.00671
  0
VERTEX
  10
75.458397
  20
844.1192
  0
VERTEX
  10
75.343735
  20
844.25391
  0
VERTEX
  10
75.258972
  20
844.40576
  0
VERTEX
  10
75.205231
  20
844.56989
  0
VERTEX
  10
75.18364
  20
844.74121
  0
VERTEX
  10
75.195328
  20
844.91479
  0
VERTEX
  10
75.241409
  20
845.08557
  0
VERTEX
  10
75.322998
  20
845.2486
  0
VERTEX
  10
77.729622
  20
849.04895
  0
VERTEX
  10
77.97226
  20
849.35956
  0
VERTEX
  10
78.268059
  20
849.61438
  0
VERTEX
  10
78.607719
  20
849.80688
  0
VERTEX
  10
78.981956
  20
849.93054
  0
VERTEX
  10
79.373161
  20
849.97845
  0
VERTEX
  10
79.762505
  20
849.94928
  0
VERTEX
  10
80.138763
  20
849.84509
  0
VERTEX
  10
80.490753
  20
849.66779
  0
VERTEX
  10
80.74469
  20
849.50665
  0
VERTEX
  10
81.103996
  20
849.32611
  0
VERTEX
  10
81.480576
  20
849.22333
  0
VERTEX
  10
81.863525
  20
849.1958
  0
VERTEX
  10
82.241966
  20
849.24133
  0
VERTEX
  10
82.605026
  20
849.35742
  0
VERTEX
  10
82.941818
  20
849.54175
  0
VERTEX
  10
83.241463
  20
849.79193
  0
VERTEX
  10
83.49308
  20
850.10559
  0
VERTEX
  10
83.499023
  20
850.11481
  0
VERTEX
  10
83.504913
  20
850.12402
  0
VERTEX
  10
83.416641
  20
849.98486
  0
VERTEX
  10
83.49308
  20
850.10559
  0
VERTEX
  10
97.968781
  20
872.96472
  0
VERTEX
  10
98.573181
  20
873.89526
  0
VERTEX
  10
99.197868
  20
874.80939
  0
VERTEX
  10
99.842506
  20
875.70697
  0
VERTEX
  10
100.50674
  20
876.58771
  0
VERTEX
  10
101.1902
  20
877.45129
  0
VERTEX
  10
101.89255
  20
878.29749
  0
VERTEX
  10
102.6134
  20
879.12604
  0
VERTEX
  10
103.35244
  20
879.93665
  0
VERTEX
  10
104.10928
  20
880.72913
  0
VERTEX
  10
104.88356
  20
881.50311
  0
VERTEX
  10
105.67493
  20
882.25842
  0
VERTEX
  10
106.48303
  20
882.99481
  0
VERTEX
  10
107.30751
  20
883.71191
  0
VERTEX
  10
108.14801
  20
884.40955
  0
VERTEX
  10
109.00417
  20
885.0874
  0
VERTEX
  10
109.87563
  20
885.74524
  0
VERTEX
  10
110.76205
  20
886.38281
  0
VERTEX
  10
111.66306
  20
886.99982
  0
VERTEX
  10
112.57829
  20
887.59601
  0
VERTEX
  10
113.50739
  20
888.17114
  0
VERTEX
  10
114.45003
  20
888.72491
  0
VERTEX
  10
115.40581
  20
889.25714
  0
VERTEX
  10
116.3744
  20
889.76746
  0
VERTEX
  10
117.35544
  20
890.25568
  0
VERTEX
  10
118.34856
  20
890.7215
  0
VERTEX
  10
119.35343
  20
891.16461
  0
VERTEX
  10
120.36967
  20
891.5849
  0
VERTEX
  10
121.39692
  20
891.98193
  0
VERTEX
  10
122.43483
  20
892.35559
  0
VERTEX
  10
123.48305
  20
892.70551
  0
VERTEX
  10
124.54121
  20
893.03143
  0
VERTEX
  10
125.60896
  20
893.33319
  0
VERTEX
  10
125.88225
  20
893.43616
  0
VERTEX
  10
126.12392
  20
893.58539
  0
VERTEX
  10
126.32996
  20
893.77435
  0
VERTEX
  10
126.49638
  20
893.99664
  0
VERTEX
  10
126.61922
  20
894.24561
  0
VERTEX
  10
126.69447
  20
894.51489
  0
VERTEX
  10
126.71815
  20
894.79791
  0
VERTEX
  10
126.68627
  20
895.08826
  0
VERTEX
  10
126.66354
  20
895.19696
  0
VERTEX
  10
126.63152
  20
895.49915
  0
VERTEX
  10
126.65945
  20
895.7926
  0
VERTEX
  10
126.74269
  20
896.07031
  0
VERTEX
  10
126.87656
  20
896.32507
  0
VERTEX
  10
127.05638
  20
896.5498
  0
VERTEX
  10
127.2775
  20
896.7373
  0
VERTEX
  10
127.53522
  20
896.88049
  0
VERTEX
  10
127.82489
  20
896.97217
  0
VERTEX
  10
131.54449
  20
897.74969
  0
VERTEX
  10
131.68549
  20
897.76465
  0
VERTEX
  10
131.82245
  20
897.75159
  0
VERTEX
  10
131.95206
  20
897.71277
  0
VERTEX
  10
132.07095
  20
897.65027
  0
VERTEX
  10
132.17581
  20
897.56641
  0
VERTEX
  10
132.26331
  20
897.4632
  0
VERTEX
  10
132.33012
  20
897.3429
  0
VERTEX
  10
132.37291
  20
897.20776
  0
VERTEX
  10
132.38786
  20
897.06677
  0
VERTEX
  10
132.37482
  20
896.92981
  0
VERTEX
  10
132.33597
  20
896.80017
  0
VERTEX
  10
132.2735
  20
896.68127
  0
VERTEX
  10
132.18958
  20
896.57642
  0
VERTEX
  10
132.0864
  20
896.48889
  0
VERTEX
  10
131.96613
  20
896.42212
  0
VERTEX
  10
131.83093
  20
896.37933
  0
VERTEX
  10
130.26479
  20
896.05194
  0
VERTEX
  10
130.12958
  20
896.00916
  0
VERTEX
  10
130.00931
  20
895.94238
  0
VERTEX
  10
129.90613
  20
895.85486
  0
VERTEX
  10
129.82222
  20
895.75
  0
VERTEX
  10
129.75977
  20
895.6311
  0
VERTEX
  10
129.72092
  20
895.50153
  0
VERTEX
  10
129.70787
  20
895.36456
  0
VERTEX
  10
129.72281
  20
895.22357
  0
VERTEX
  10
129.76385
  20
895.02716
  0
VERTEX
  10
129.80656
  20
894.89215
  0
VERTEX
  10
129.87323
  20
894.77197
  0
VERTEX
  10
129.96057
  20
894.66888
  0
VERTEX
  10
130.06525
  20
894.58496
  0
VERTEX
  10
130.18391
  20
894.52246
  0
VERTEX
  10
130.31329
  20
894.48346
  0
VERTEX
  10
130.45004
  20
894.47021
  0
VERTEX
  10
130.59088
  20
894.48486
  0
VERTEX
  10
132.84134
  20
894.93579
  0
VERTEX
  10
135.09671
  20
895.35791
  0
VERTEX
  10
137.35672
  20
895.7511
  0
VERTEX
  10
139.62111
  20
896.11536
  0
VERTEX
  10
141.88959
  20
896.45074
  0
VERTEX
  10
144.16188
  20
896.75714
  0
VERTEX
  10
146.43771
  20
897.03455
  0
VERTEX
  10
148.7168
  20
897.28296
  0
VERTEX
  10
150.99886
  20
897.50232
  0
VERTEX
  10
153.28363
  20
897.69257
  0
VERTEX
  10
155.57082
  20
897.8537
  0
VERTEX
  10
157.86017
  20
897.98578
  0
VERTEX
  10
160.15138
  20
898.08862
  0
VERTEX
  10
162.44418
  20
898.16229
  0
VERTEX
  10
164.7383
  20
898.20679
  0
VERTEX
  10
167.03345
  20
898.22198
  0
VERTEX
  10
169.32857
  20
898.20679
  0
VERTEX
  10
171.62267
  20
898.16229
  0
VERTEX
  10
173.91544
  20
898.08862
  0
VERTEX
  10
176.20665
  20
897.98578
  0
VERTEX
  10
178.49599
  20
897.85376
  0
VERTEX
  10
180.78317
  20
897.69257
  0
VERTEX
  10
183.06795
  20
897.50232
  0
VERTEX
  10
185.35001
  20
897.28296
  0
VERTEX
  10
187.6291
  20
897.03455
  0
VERTEX
  10
189.90494
  20
896.75714
  0
VERTEX
  10
192.17722
  20
896.45074
  0
VERTEX
  10
194.44572
  20
896.11542
  0
VERTEX
  10
196.71014
  20
895.7511
  0
VERTEX
  10
198.97015
  20
895.35791
  0
VERTEX
  10
201.22552
  20
894.93585
  0
VERTEX
  10
203.476
  20
894.48492
  0
VERTEX
  10
203.61685
  20
894.47021
  0
VERTEX
  10
203.75363
  20
894.48346
  0
VERTEX
  10
203.88303
  20
894.52246
  0
VERTEX
  10
204.00171
  20
894.58496
  0
VERTEX
  10
204.10638
  20
894.66888
  0
VERTEX
  10
204.19373
  20
894.77197
  0
VERTEX
  10
204.26039
  20
894.89215
  0
VERTEX
  10
204.3031
  20
895.02716
  0
VERTEX
  10
204.34415
  20
895.22357
  0
VERTEX
  10
204.35909
  20
895.36456
  0
VERTEX
  10
204.34604
  20
895.50153
  0
VERTEX
  10
204.30719
  20
895.6311
  0
VERTEX
  10
204.24474
  20
895.75
  0
VERTEX
  10
204.16083
  20
895.85486
  0
VERTEX
  10
204.05765
  20
895.94238
  0
VERTEX
  10
203.93738
  20
896.00916
  0
VERTEX
  10
203.80217
  20
896.05194
  0
VERTEX
  10
202.23602
  20
896.37933
  0
VERTEX
  10
202.10083
  20
896.42212
  0
VERTEX
  10
201.98056
  20
896.48895
  0
VERTEX
  10
201.87738
  20
896.57642
  0
VERTEX
  10
201.79346
  20
896.68127
  0
VERTEX
  10
201.73099
  20
896.80017
  0
VERTEX
  10
201.69214
  20
896.92981
  0
VERTEX
  10
201.67909
  20
897.06677
  0
VERTEX
  10
201.69405
  20
897.20776
  0
VERTEX
  10
201.73683
  20
897.34296
  0
VERTEX
  10
201.80365
  20
897.4632
  0
VERTEX
  10
201.89114
  20
897.56641
  0
VERTEX
  10
201.996
  20
897.65033
  0
VERTEX
  10
202.1149
  20
897.71277
  0
VERTEX
  10
202.24451
  20
897.75159
  0
VERTEX
  10
202.38147
  20
897.76465
  0
VERTEX
  10
202.52246
  20
897.74969
  0
VERTEX
  10
206.24207
  20
896.97217
  0
VERTEX
  10
206.53174
  20
896.88049
  0
VERTEX
  10
206.78946
  20
896.7373
  0
VERTEX
  10
207.01059
  20
896.5498
  0
VERTEX
  10
207.1904
  20
896.32513
  0
VERTEX
  10
207.32425
  20
896.07031
  0
VERTEX
  10
207.4075
  20
895.7926
  0
VERTEX
  10
207.43542
  20
895.49915
  0
VERTEX
  10
207.40341
  20
895.19702
  0
VERTEX
  10
207.38068
  20
895.08826
  0
VERTEX
  10
207.3488
  20
894.79797
  0
VERTEX
  10
207.37248
  20
894.51489
  0
VERTEX
  10
207.44772
  20
894.24567
  0
VERTEX
  10
207.57056
  20
893.99664
  0
VERTEX
  10
207.73698
  20
893.77441
  0
VERTEX
  10
207.94302
  20
893.58539
  0
VERTEX
  10
208.18469
  20
893.43616
  0
VERTEX
  10
208.45798
  20
893.33319
  0
VERTEX
  10
209.52573
  20
893.03143
  0
VERTEX
  10
210.58389
  20
892.70551
  0
VERTEX
  10
211.63211
  20
892.35559
  0
VERTEX
  10
212.67001
  20
891.98199
  0
VERTEX
  10
213.69727
  20
891.5849
  0
VERTEX
  10
214.7135
  20
891.16467
  0
VERTEX
  10
215.71835
  20
890.7215
  0
VERTEX
  10
216.71149
  20
890.25568
  0
VERTEX
  10
217.69254
  20
889.76746
  0
VERTEX
  10
218.66112
  20
889.25714
  0
VERTEX
  10
219.6169
  20
888.72498
  0
VERTEX
  10
220.55954
  20
888.17114
  0
VERTEX
  10
221.48865
  20
887.59601
  0
VERTEX
  10
222.40388
  20
886.99982
  0
VERTEX
  10
223.30489
  20
886.38281
  0
VERTEX
  10
224.1913
  20
885.74524
  0
VERTEX
  10
225.06276
  20
885.0874
  0
VERTEX
  10
225.91891
  20
884.40955
  0
VERTEX
  10
226.75941
  20
883.71191
  0
VERTEX
  10
227.58389
  20
882.99481
  0
VERTEX
  10
228.392
  20
882.25848
  0
VERTEX
  10
229.18336
  20
881.50317
  0
VERTEX
  10
229.95766
  20
880.72913
  0
VERTEX
  10
230.71449
  20
879.93671
  0
VERTEX
  10
231.45354
  20
879.12604
  0
VERTEX
  10
232.17439
  20
878.29749
  0
VERTEX
  10
232.87674
  20
877.45129
  0
VERTEX
  10
233.56021
  20
876.58771
  0
VERTEX
  10
234.22446
  20
875.70703
  0
VERTEX
  10
234.86908
  20
874.80945
  0
VERTEX
  10
235.49377
  20
873.89526
  0
VERTEX
  10
236.09818
  20
872.96478
  0
VERTEX
  10
250.57388
  20
850.10559
  0
VERTEX
  10
250.65033
  20
849.98492
  0
VERTEX
  10
250.56206
  20
850.12402
  0
SEQEND
  0
ENDSEC
  0
EOF
