%!PS-Adobe-3.0
%%Creator: LightBurn
%%Title: <untitled>
%%BoundingBox: 2 1 332 160
%%HiResBoundingBox: 2.15278 1.77802 331.916 159.641
%%DocumentProcessColors: Black
%%DocumentNeededResources: procset Adobe_packedarray 2.0 0
%%+ procset Adobe_cshow 1.1 0
%%+ procset Adobe_customcolor 1.0 0
%%+ procset Adobe_Illustrator_AI3 1.0 1
%0X0.07FF69P-1022I3_ColorUsage: Color
%0X0.07FF69P-1022I3_DocumentPreview: None
%%PageOrigin:0 0
%%EndComments
%%BeginProlog
%%IncludeResource: procset Adobe_packedarray 2.0 0
Adobe_packedarray /initialize get exec
%%IncludeResource: procset Adobe_cshow 1.1 0
%%IncludeResource: procset Adobe_customcolor 1.0 0
%%IncludeResource: procset Adobe_Illustrator_AI3 1.0 1
%%EndProlog
%%BeginSetup
Adobe_cshow /initialize get exec
Adobe_customcolor /initialize get exec
Adobe_Illustrator_AI3 /initialize get exec
%%EndSetup
0 A
0 O
0 0 0 1 K
0 J 0 j 1 w 10 M []0 d
0 0 0 XA
710.28821 -141.43294 m
711.9812 -144.03796 715.45551 -144.79509 718.07892 -143.13069 C
718.79877 -142.67403 L
720.06903 -141.86809 721.60767 -141.6001 723.07568 -141.92909 C
724.54364 -142.25807 725.82068 -143.15704 726.62555 -144.42805 C
733.44745 -155.20084 L
734.20129 -156.3912 733.84747 -157.96729 732.65704 -158.7211 C
731.46661 -159.4749 729.89056 -159.121 729.13684 -157.93063 C
S
710.2547 -141.38068 m
710.26581 -141.39819 710.27692 -141.41554 710.28821 -141.43294 C
S
729.13678 -157.93063 m
726.85767 -154.33821 L
725.80927 -152.68579 723.61987 -152.19611 721.96747 -153.24445 C
720.31506 -154.2928 719.82538 -156.48221 720.87372 -158.13461 C
722.64801 -160.9313 L
878.55798 -406.67786 L
884.0874 -415.39536 890.63275 -423.42517 898.05646 -430.5986 C
905.47113 -437.17542 L
910.49396 -442.02896 918.30402 -442.49954 923.87341 -438.2843 C
929.44269 -434.06906 931.11072 -426.42474 927.80371 -420.27255 C
924.49677 -414.12036 917.20062 -411.29462 910.61249 -413.61441 C
907.65051 -414.65738 904.40375 -413.10175 903.36078 -410.13971 C
902.31787 -407.17767 903.87341 -403.931 906.83551 -402.88803 C
917.42688 -399.1586 929.21173 -402.78278 935.8772 -411.81909 C
942.54279 -420.85544 942.52594 -433.18497 935.83588 -442.20309 C
929.14563 -451.22122 917.35101 -454.8132 906.76984 -451.05487 C
889.18445 -444.08884 874.25842 -431.73026 864.13409 -415.75311 C
685.39221 -133.67957 L
672.02411 -112.58327 652.49225 -96.107948 629.44446 -86.487083 C
624.43854 -84.336456 619.60309 -81.809151 614.97955 -78.926842 C
608.42859 -74.842964 L
567.94214 -49.603889 521.18964 -36.223194 473.48068 -36.220455 C
425.77158 -36.223251 379.0191 -49.603996 338.53284 -74.843056 C
331.98196 -78.926857 L
327.35846 -81.809135 322.52295 -84.336472 317.51706 -86.487122 C
315.20438 -87.48069 L
293.14539 -97.228973 274.47803 -113.30826 261.56927 -133.67963 C
82.827446 -415.7532 L
73.413849 -430.6088 59.83189 -442.36154 43.778053 -449.54333 C
42.902908 -449.9122 L
32.497559 -455.02261 19.955542 -452.48566 12.354385 -443.73291 C
4.753274 -434.98019 3.9989371 -422.20636 10.517118 -412.61984 C
17.035297 -403.03339 29.19154 -399.0379 40.126049 -402.88812 C
43.088036 -403.93109 44.643723 -407.17776 43.600758 -410.1398 C
42.557793 -413.10184 39.311115 -414.65747 36.349091 -413.6145 C
29.760925 -411.29471 22.464836 -414.12042 19.157822 -420.27264 C
15.850806 -426.42484 17.518869 -434.06915 23.088202 -438.28439 C
28.657536 -442.49963 36.46756 -442.02905 41.490433 -437.17551 C
48.905079 -430.59866 L
56.328766 -423.42529 62.874195 -415.39542 68.403648 -406.67795 C
224.31351 -160.93135 L
226.0878 -158.13466 L
227.13615 -156.48224 226.64647 -154.29285 224.99406 -153.24449 C
223.34163 -152.19615 221.15224 -152.68584 220.10388 -154.33826 C
217.82472 -157.93068 L
217.07092 -159.12105 215.49484 -159.47495 214.30447 -158.72115 C
213.11409 -157.96733 212.76019 -156.39125 213.51402 -155.20088 C
220.33594 -144.4281 L
221.14082 -143.1571 222.41785 -142.25812 223.88586 -141.92914 C
225.35387 -141.60014 226.89243 -141.86812 228.16277 -142.67406 C
228.8826 -143.13074 L
231.50598 -144.79512 234.98029 -144.03799 236.67331 -141.43297 C
236.6846 -141.41559 236.69576 -141.39824 236.70685 -141.38072 C
236.45663 -141.77515 L
236.67331 -141.43297 L
277.70679 -76.635384 L
295.67065 -48.256165 323.6308 -27.651953 356.05692 -18.898102 C
358.23224 -18.310844 359.57175 -16.128607 359.11069 -13.923079 C
359.04626 -13.61484 L
358.56577 -11.316225 360.03964 -9.0633135 362.33829 -8.5828199 C
372.88205 -6.3787966 L
373.95471 -6.1545668 375.00607 -6.8423767 375.23032 -7.9150629 C
375.45453 -8.987751 374.76672 -10.039104 373.694 -10.263323 C
369.25452 -11.191289 L
368.18179 -11.415509 367.49399 -12.466861 367.7182 -13.53955 C
367.83456 -14.096271 L
368.05847 -15.167494 369.10742 -15.855186 370.17889 -15.633381 C
404.16272 -8.5983648 438.77591 -5.0488267 473.48065 -5.0400429 C
508.18503 -5.0488205 542.79822 -8.5982666 576.78235 -15.633324 C
577.85406 -15.855167 578.90302 -15.167476 579.12689 -14.096251 C
579.24329 -13.539531 L
579.46747 -12.466842 578.77966 -11.41549 577.70697 -11.191272 C
573.26746 -10.263305 L
572.19476 -10.039086 571.50696 -8.9877357 571.73114 -7.9150467 C
571.95538 -6.84236 573.00677 -6.1545491 574.07941 -6.3787789 C
584.62317 -8.5827999 L
586.92188 -9.0632925 588.39569 -11.316204 587.91522 -13.614819 C
587.85077 -13.923059 L
587.38977 -16.128588 588.72925 -18.310825 590.90454 -18.898075 C
623.33063 -27.651894 651.29077 -48.256081 669.2547 -76.6353 C
710.28821 -141.43294 L
710.50488 -141.7751 L
710.2547 -141.38068 L
S
%%PageTrailer
gsave annotatepage grestore showpage
%%Trailer
Adobe_Illustrator_AI3 /terminate get exec
Adobe_customcolor /terminate get exec
Adobe_cshow /terminate get exec
Adobe_packedarray /terminate get exec
%%EOF
